0.01  5.32306  0.282272  41.8102  2.07821
0.02  5.99963  0.312902  42.7738  2.1636
0.03  6.37132  0.343734  44.0021  2.16977
0.04  6.9838  0.366514  44.3221  2.25791
0.05  7.5233  0.407681  45.3584  2.33644
0.06  8.25416  0.44956  46.1417  2.31353
0.07  9.03784  0.490829  46.6553  2.41745
0.08  9.86229  0.545056  47.6374  2.45683
0.09  11.0148  0.606391  49.6049  2.61374
0.1  12.0809  0.665917  49.1102  2.57676
0.15  20.9685  1.93809  53.0308  3.55934
0.2  40.1568  11.5363  53.2819  11.7612
0.25  75.9595  50.5444  51.5382  19.3066
