0.01  25.7078  0.548632  210.382  4.26603
0.02  27.8466  0.600122  213.738  4.32062
0.03  30.3005  0.656531  219.277  4.4316
0.04  32.9255  0.716643  223.565  4.59175
0.05  35.8915  0.792154  226.438  4.55453
0.06  39.0998  0.864886  230.911  4.84079
0.07  42.7883  0.970335  231.856  4.83424
0.08  46.2694  1.11918  238.258  5.04716
0.09  51.1789  1.26854  243.984  5.13607
0.1  56.4099  1.41585  241.81  5.27378
0.15  95.2571  6.40906  264.123  9.77339
0.2  159.873  33.797  265.805  32.3226
0.25  227.123  112.317  241.088  47.2848
